<svg width="20" height="20" viewBox="0 0 20 20" fill="none" xmlns="http://www.w3.org/2000/svg">
<path d="M7.56641 13.446H12.4122" stroke="#130F26" stroke-width="1.5" stroke-linecap="round" stroke-linejoin="round"/>
<path fill-rule="evenodd" clip-rule="evenodd" d="M2 11.4278C2 6.73533 2.51167 7.06283 5.26583 4.50866C6.47083 3.53866 8.34583 1.66699 9.965 1.66699C11.5833 1.66699 13.4958 3.52949 14.7117 4.50866C17.4658 7.06283 17.9767 6.73533 17.9767 11.4278C17.9767 18.3337 16.3442 18.3337 9.98833 18.3337C3.6325 18.3337 2 18.3337 2 11.4278Z" fill="#51267D" stroke="#51267D" stroke-width="1.5" stroke-linecap="round" stroke-linejoin="round"/>
</svg>
